{
  "project_info": {
    "project_number": "998406923399",
    "firebase_url": "https://homedropapp-afed7.firebaseio.com",
    "project_id": "homedropapp-afed7",
    "storage_bucket": "homedropapp-afed7.appspot.com"
  },
  "client": [
    {
      "client_info": {
        "mobilesdk_app_id": "1:998406923399:android:da7baab6cea79053",
        "android_client_info": {
          "package_name": "com.example.harshkhare.HomeDropApp"
        }
      },
      "oauth_client": [
        {
          "client_id": "998406923399-jqss9lujkkedjmqr86ibve6t1cdulirr.apps.googleusercontent.com",
          "client_type": 1,
          "android_info": {
            "package_name": "com.example.harshkhare.HomeDropApp",
            "certificate_hash": "74d754e13b4530ae4a57f2bab7d2fef6063410c7"
          }
        },
        {
          "client_id": "998406923399-pf9sk9tona9u62b0b2mi3uaohrrca5tu.apps.googleusercontent.com",
          "client_type": 1,
          "android_info": {
            "package_name": "com.example.harshkhare.HomeDropApp",
            "certificate_hash": "98ebe23e6a54ab1bba92a986814d48e47c3d3dc5"
          }
        },
        {
          "client_id": "998406923399-ao3542bho2bu27lu8os134be2e3no2dp.apps.googleusercontent.com",
          "client_type": 3
        }
      ],
      "api_key": [
        {
          "current_key": "AIzaSyBR0bl4DUAnanv3kDO_5FL5cIuh4cTPB2I"
        }
      ],
      "services": {
        "analytics_service": {
          "status": 1
        },
        "appinvite_service": {
          "status": 2,
          "other_platform_oauth_client": [
            {
              "client_id": "998406923399-ao3542bho2bu27lu8os134be2e3no2dp.apps.googleusercontent.com",
              "client_type": 3
            }
          ]
        },
        "ads_service": {
          "status": 2
        }
      }
    },
    {
      "client_info": {
        "mobilesdk_app_id": "1:998406923399:android:8553f8abfb4c1b92",
        "android_client_info": {
          "package_name": "com.example.harshkhare.homedropapp"
        }
      },
      "oauth_client": [
        {
          "client_id": "998406923399-gnpu8tplff3me56otqhu8snf86pene3u.apps.googleusercontent.com",
          "client_type": 1,
          "android_info": {
            "package_name": "com.example.harshkhare.homedropapp",
            "certificate_hash": "74d754e13b4530ae4a57f2bab7d2fef6063410c7"
          }
        },
        {
          "client_id": "998406923399-ao3542bho2bu27lu8os134be2e3no2dp.apps.googleusercontent.com",
          "client_type": 3
        }
      ],
      "api_key": [
        {
          "current_key": "AIzaSyBR0bl4DUAnanv3kDO_5FL5cIuh4cTPB2I"
        }
      ],
      "services": {
        "analytics_service": {
          "status": 1
        },
        "appinvite_service": {
          "status": 2,
          "other_platform_oauth_client": [
            {
              "client_id": "998406923399-ao3542bho2bu27lu8os134be2e3no2dp.apps.googleusercontent.com",
              "client_type": 3
            }
          ]
        },
        "ads_service": {
          "status": 2
        }
      }
    }
  ],
  "configuration_version": "1"
}